{
  "searches": [
    {
      "search-claim": "rx 6800 xt",
      "price-limit": 800,
      "claim-blacklist": [
        "wasserk",
        "Eisblock",
        "Backplate",
        "Lüfterset",
        "Kabel"
      ],
      "follower": [
        "@telegram_name"
      ]
    }
  ]
}